{
    "blogs": [
        {
            "author": "Emily Smith",
            "title": "The Art of Productivity",
            "description": "Unlock your potential and boost productivity with actionable tips.",
            "date": "2024-04-10",
            "path": "blogs/The-Art-of-Productivity/blog.md"
        },
        {
            "author": "David Johnson",
            "title": "The Power of Mindfulness",
            "description": "Discover the transformative benefits of mindfulness in daily life.",
            "date": "2024-04-11",
            "path": "blogs/The-Power-of-Mindfulness/blog.md"
        },
        {
            "author": "Samantha Lee",
            "title": "The Journey to Self-Discovery",
            "description": "Embark on a profound journey of self-discovery and personal growth.",
            "date": "2024-04-12",
            "path": "blogs/The-Journey-to-Self-Discovery/blog.md"
        }
    ]
}
